(footprint "R0805" (version 20211014) (generator pcbnew)
  (layer "F.Cu")
  (tedit 0)
  (descr "<b>RESISTOR</b><p>")
  (fp_text reference "REF**" (at -0.635 -1.27) (layer "F.Cu")
    (effects (font (size 1.1684 1.1684) (thickness 0.1016)) (justify left bottom))
    (tstamp edcb2080-2ca0-4267-a697-7e59e2f92523)
  )
  (fp_text value ">VALUE" (at -0.635 2.54) (layer "F.Cu")
    (effects (font (size 1.1684 1.1684) (thickness 0.1016)) (justify left bottom))
    (tstamp 3b27a615-a68e-48eb-9fe9-80252386993a)
  )
  (fp_poly (pts
      (xy -0.1999 0.5001)
      (xy 0.1999 0.5001)
      (xy 0.1999 -0.5001)
      (xy -0.1999 -0.5001)
    ) (layer "F.Adhes") (width 0) (fill solid) (tstamp da5bfc68-04b4-48fa-8c21-9339eab5fdb7))
  (fp_line (start -1.973 -0.983) (end 1.973 -0.983) (layer "F.CrtYd") (width 0.0508) (tstamp 116d66f7-289f-4bbf-93a6-a32d1d3ded0e))
  (fp_line (start 1.973 0.983) (end -1.973 0.983) (layer "F.CrtYd") (width 0.0508) (tstamp 4872061b-921b-48d0-8cc6-0136a8940212))
  (fp_line (start 1.973 -0.983) (end 1.973 0.983) (layer "F.CrtYd") (width 0.0508) (tstamp 56461b50-ed6d-465b-b8f4-9664ffa371bc))
  (fp_line (start -1.973 0.983) (end -1.973 -0.983) (layer "F.CrtYd") (width 0.0508) (tstamp b5b88159-13d7-4077-94c2-1f4ba7d81925))
  (fp_line (start -0.41 -0.635) (end 0.41 -0.635) (layer "F.Fab") (width 0.1524) (tstamp 05764e19-5b5a-40bb-a24c-27b5ab818a8d))
  (fp_line (start -0.41 0.635) (end 0.41 0.635) (layer "F.Fab") (width 0.1524) (tstamp 92700eb1-a253-4378-9026-b84f4738c606))
  (fp_poly (pts
      (xy 0.4064 0.6985)
      (xy 1.0564 0.6985)
      (xy 1.0564 -0.7015)
      (xy 0.4064 -0.7015)
    ) (layer "F.Fab") (width 0) (fill solid) (tstamp 4311be31-be1d-4fee-be9c-7022c9163f33))
  (fp_poly (pts
      (xy -1.0668 0.6985)
      (xy -0.4168 0.6985)
      (xy -0.4168 -0.7015)
      (xy -1.0668 -0.7015)
    ) (layer "F.Fab") (width 0) (fill solid) (tstamp 7ec21b18-9b2a-4f17-b7d7-5ba995d47489))
  (pad "1" smd rect (at -0.95 0) (size 1.3 1.5) (layers "F.Cu" "F.Paste" "F.Mask")
    (solder_mask_margin 0.0508) (tstamp 0d5ee3a8-4c5b-4e7d-9ee4-aeda21c9e736))
  (pad "2" smd rect (at 0.95 0) (size 1.3 1.5) (layers "F.Cu" "F.Paste" "F.Mask")
    (solder_mask_margin 0.0508) (tstamp dda5d86f-92d8-40ed-be31-d0c12e323474))
)
