(footprint "TSOP4.4X5" (version 20211014) (generator pcbnew)
  (layer "F.Cu")
  (tedit 0)
  (descr "<b>TSOP16</b><p>\nthin small outline package")
  (fp_text reference "REF**" (at -1.1114 -4.1686) (layer "F.Cu")
    (effects (font (size 1.1684 1.1684) (thickness 0.1016)) (justify right top))
    (tstamp d82a7148-a39b-4e0f-9b6e-924cf85a4ba5)
  )
  (fp_text value ">VALUE" (at -0.4208 -2.3563) (layer "F.Cu")
    (effects (font (size 1.1684 1.1684) (thickness 0.1016)) (justify right top))
    (tstamp 63970437-eb9f-4731-a288-7970df6fe9d3)
  )
  (fp_text user "1" (at -8.2537 0.8251) (layer "F.Cu")
    (effects (font (size 0.93472 0.93472) (thickness 0.08128)) (justify left bottom))
    (tstamp cd506ad3-513b-4021-86f8-39f7776ebfbc)
  )
  (fp_line (start -7.7158 1.2852) (end -7.7158 -6.5546) (layer "F.CrtYd") (width 0.1998) (tstamp 27239023-f00e-4804-a136-297a765bf6c9))
  (fp_line (start -1.8318 1.2852) (end -7.7158 1.2852) (layer "F.CrtYd") (width 0.1998) (tstamp 498cae33-60d2-42d3-a8c9-15388edb8180))
  (fp_line (start -7.7158 -6.5546) (end -1.8318 -6.5546) (layer "F.CrtYd") (width 0.1998) (tstamp c0cbedbc-2ec6-4a2e-a75b-46984a25e81e))
  (fp_line (start -1.8318 -6.5546) (end -1.8318 1.2852) (layer "F.CrtYd") (width 0.1998) (tstamp ff39dbb7-2081-4b3f-9bb6-52b6e369ddf7))
  (fp_line (start -2.1608 -0.3357) (end -7.4223 -0.3357) (layer "F.Fab") (width 0.2032) (tstamp 3a1b1134-341f-4c46-85b7-087fff734727))
  (fp_line (start -7.4223 -0.3357) (end -7.4223 -4.8496) (layer "F.Fab") (width 0.2032) (tstamp 45753b80-0243-466c-8e9c-94b94fa2479c))
  (fp_line (start -2.1608 -4.8496) (end -2.1608 -0.3357) (layer "F.Fab") (width 0.2032) (tstamp 5379e448-3c23-4d18-b972-b2c6d64aa75b))
  (fp_line (start -7.4223 -4.8496) (end -2.1608 -4.8496) (layer "F.Fab") (width 0.2032) (tstamp ed1ec24c-29fe-4a9d-a616-5d4640598315))
  (fp_poly (pts
      (xy -3.3668 0.5974)
      (xy -2.9667 0.5974)
      (xy -2.9667 -0.2228)
      (xy -3.3668 -0.2228)
    ) (layer "F.Fab") (width 0) (fill solid) (tstamp 1a668d5f-28d2-4525-92db-84b973e41761))
  (fp_poly (pts
      (xy -4.0167 0.5974)
      (xy -3.6167 0.5974)
      (xy -3.6167 -0.2228)
      (xy -4.0167 -0.2228)
    ) (layer "F.Fab") (width 0) (fill solid) (tstamp 23df06de-48b4-4dda-9a18-5d1cfba17048))
  (fp_poly (pts
      (xy -5.9386 -4.9345)
      (xy -5.5386 -4.9345)
      (xy -5.5386 -5.7547)
      (xy -5.9386 -5.7547)
    ) (layer "F.Fab") (width 0) (fill solid) (tstamp 300b9f2e-a488-48d1-9243-64efebb96ab4))
  (fp_poly (pts
      (xy -7.2386 -4.9345)
      (xy -6.8385 -4.9345)
      (xy -6.8385 -5.7547)
      (xy -7.2386 -5.7547)
    ) (layer "F.Fab") (width 0) (fill solid) (tstamp 3ba32534-0e18-4116-8fe1-5a20c1391dca))
  (fp_poly (pts
      (xy -5.9667 0.5974)
      (xy -5.5667 0.5974)
      (xy -5.5667 -0.2228)
      (xy -5.9667 -0.2228)
    ) (layer "F.Fab") (width 0) (fill solid) (tstamp 43c73ded-5ec1-4f6a-9c45-f5f827e03669))
  (fp_poly (pts
      (xy -5.2886 -4.9345)
      (xy -4.8886 -4.9345)
      (xy -4.8886 -5.7547)
      (xy -5.2886 -5.7547)
    ) (layer "F.Fab") (width 0) (fill solid) (tstamp 44195eda-617d-43d6-9a85-51e1e61a8b0e))
  (fp_poly (pts
      (xy -3.3387 -4.9345)
      (xy -2.9386 -4.9345)
      (xy -2.9386 -5.7547)
      (xy -3.3387 -5.7547)
    ) (layer "F.Fab") (width 0) (fill solid) (tstamp 47d42484-3021-46cf-9988-0d390c3f9143))
  (fp_poly (pts
      (xy -6.5886 -4.9345)
      (xy -6.1885 -4.9345)
      (xy -6.1885 -5.7547)
      (xy -6.5886 -5.7547)
    ) (layer "F.Fab") (width 0) (fill solid) (tstamp 4e974a60-7c1b-4b21-acb4-62231fffff56))
  (fp_poly (pts
      (xy -2.6887 -4.9345)
      (xy -2.2886 -4.9345)
      (xy -2.2886 -5.7547)
      (xy -2.6887 -5.7547)
    ) (layer "F.Fab") (width 0) (fill solid) (tstamp 5b55503a-3d4b-4ccc-a004-0b461301dd9b))
  (fp_poly (pts
      (xy -6.6167 0.5974)
      (xy -6.2166 0.5974)
      (xy -6.2166 -0.2228)
      (xy -6.6167 -0.2228)
    ) (layer "F.Fab") (width 0) (fill solid) (tstamp 75287798-70bc-4410-9c9e-b4a385985d78))
  (fp_poly (pts
      (xy -5.3167 0.5974)
      (xy -4.9167 0.5974)
      (xy -4.9167 -0.2228)
      (xy -5.3167 -0.2228)
    ) (layer "F.Fab") (width 0) (fill solid) (tstamp 75f49acc-4c9c-4845-b848-c54f9ce87635))
  (fp_poly (pts
      (xy -7.2667 0.5974)
      (xy -6.8666 0.5974)
      (xy -6.8666 -0.2228)
      (xy -7.2667 -0.2228)
    ) (layer "F.Fab") (width 0) (fill solid) (tstamp 7ff8c8f0-28d5-4eb8-966b-7a4db0f2dd02))
  (fp_poly (pts
      (xy -4.6667 0.5974)
      (xy -4.2667 0.5974)
      (xy -4.2667 -0.2228)
      (xy -4.6667 -0.2228)
    ) (layer "F.Fab") (width 0) (fill solid) (tstamp 8d826820-bf38-4392-aa21-e89c3a88b487))
  (fp_poly (pts
      (xy -3.9886 -4.9345)
      (xy -3.5886 -4.9345)
      (xy -3.5886 -5.7547)
      (xy -3.9886 -5.7547)
    ) (layer "F.Fab") (width 0) (fill solid) (tstamp 9239a3ad-dca8-404e-8ac3-84f30411c09a))
  (fp_poly (pts
      (xy -2.7168 0.5974)
      (xy -2.3167 0.5974)
      (xy -2.3167 -0.2228)
      (xy -2.7168 -0.2228)
    ) (layer "F.Fab") (width 0) (fill solid) (tstamp db033427-632e-4c5d-b09f-ff104f8d0a5e))
  (fp_poly (pts
      (xy -4.6386 -4.9345)
      (xy -4.2386 -4.9345)
      (xy -4.2386 -5.7547)
      (xy -4.6386 -5.7547)
    ) (layer "F.Fab") (width 0) (fill solid) (tstamp ff0c6114-f938-49a9-b87e-82d8d6aa036e))
  (pad "1" smd rect (at -7.0667 0.0973) (size 0.4 1.8) (layers "F.Cu" "F.Paste" "F.Mask")
    (solder_mask_margin 0.0508) (tstamp d0e5aa09-8286-4227-aafb-624f9b9af07b))
  (pad "2" smd rect (at -6.4167 0.0973) (size 0.4 1.8) (layers "F.Cu" "F.Paste" "F.Mask")
    (solder_mask_margin 0.0508) (tstamp da01c1c5-bc19-4072-94d1-08980ee7d58e))
  (pad "3" smd rect (at -5.7667 0.0973) (size 0.4 1.8) (layers "F.Cu" "F.Paste" "F.Mask")
    (solder_mask_margin 0.0508) (tstamp 1c315822-f3d4-4cb2-9b90-2dfd89063fd8))
  (pad "4" smd rect (at -5.1167 0.0973) (size 0.4 1.8) (layers "F.Cu" "F.Paste" "F.Mask")
    (solder_mask_margin 0.0508) (tstamp e65ec8c3-a5a3-4125-92fa-090b97ba04f3))
  (pad "5" smd rect (at -4.4667 0.0973) (size 0.4 1.8) (layers "F.Cu" "F.Paste" "F.Mask")
    (solder_mask_margin 0.0508) (tstamp 0ff59dfa-709e-45e4-a752-550e76c119a5))
  (pad "6" smd rect (at -3.8167 0.0973) (size 0.4 1.8) (layers "F.Cu" "F.Paste" "F.Mask")
    (solder_mask_margin 0.0508) (tstamp 1631aac9-0cd5-40d5-8122-a0aba53869b4))
  (pad "7" smd rect (at -3.1667 0.0973) (size 0.4 1.8) (layers "F.Cu" "F.Paste" "F.Mask")
    (solder_mask_margin 0.0508) (tstamp 545beaa8-a326-4bcc-869e-871535f92548))
  (pad "8" smd rect (at -2.5167 0.0973) (size 0.4 1.8) (layers "F.Cu" "F.Paste" "F.Mask")
    (solder_mask_margin 0.0508) (tstamp 53d2ffc1-7854-4d1c-9714-35b537297dee))
  (pad "9" smd rect (at -2.4886 -5.2546) (size 0.4 1.8) (layers "F.Cu" "F.Paste" "F.Mask")
    (solder_mask_margin 0.0508) (tstamp 5c773d6d-f64e-42bb-ab02-1499b567963b))
  (pad "10" smd rect (at -3.1386 -5.2546) (size 0.4 1.8) (layers "F.Cu" "F.Paste" "F.Mask")
    (solder_mask_margin 0.0508) (tstamp b346774a-d359-469f-946b-642671bb3b54))
  (pad "11" smd rect (at -3.7886 -5.2546) (size 0.4 1.8) (layers "F.Cu" "F.Paste" "F.Mask")
    (solder_mask_margin 0.0508) (tstamp 78e8fafe-2ec3-4cc5-a4fb-84dcaeeb01f0))
  (pad "12" smd rect (at -4.4386 -5.2546) (size 0.4 1.8) (layers "F.Cu" "F.Paste" "F.Mask")
    (solder_mask_margin 0.0508) (tstamp 6b1a5033-913a-4da7-84e7-fd1f1974fd3f))
  (pad "13" smd rect (at -5.0886 -5.2546) (size 0.4 1.8) (layers "F.Cu" "F.Paste" "F.Mask")
    (solder_mask_margin 0.0508) (tstamp 33f5c7e7-6cfd-44c3-88ef-2aeeea754b32))
  (pad "14" smd rect (at -5.7386 -5.2546) (size 0.4 1.8) (layers "F.Cu" "F.Paste" "F.Mask")
    (solder_mask_margin 0.0508) (tstamp 61d80181-2bc3-41c5-bfbd-e2b4c103df95))
  (pad "15" smd rect (at -6.3886 -5.2546) (size 0.4 1.8) (layers "F.Cu" "F.Paste" "F.Mask")
    (solder_mask_margin 0.0508) (tstamp 0731350b-be4a-44fd-89dd-8465e933b8d2))
  (pad "16" smd rect (at -7.0386 -5.2546) (size 0.4 1.8) (layers "F.Cu" "F.Paste" "F.Mask")
    (solder_mask_margin 0.0508) (tstamp 5f19b17f-5c4c-45d1-91d1-454aa59c5aef))
)
